{
    "name": "com.tokar.animation.tool.Editor",
    "references": [
        "GUID:4138794ebc8c3724982a76ab4fbdd517"
    ],
    "includePlatforms": [
        "Editor"
    ],
    "excludePlatforms": [],
    "allowUnsafeCode": false,
    "overrideReferences": false,
    "precompiledReferences": [],
    "autoReferenced": true,
    "defineConstraints": [],
    "versionDefines": [],
    "noEngineReferences": false
}